{
    "name": "Unity.Build.Linux.Tests",
    "references": [
        "Unity.Build",
        "Unity.Build.Editor",
        "Unity.Serialization"
    ],
    "optionalUnityReferences": [
        "TestAssemblies"
    ],
    "includePlatforms": [
        "Editor"
    ],
    "excludePlatforms": [],
    "allowUnsafeCode": false
}