{
    "name": "Unity.Build.Linux.Classic",
    "references": [
        "Unity.Build",
        "Unity.Build.Classic",
        "Unity.Build.Classic.Private",
        "Unity.Build.Desktop",
        "Unity.Build.Desktop.Classic",
        "Unity.Build.Editor",
        "Unity.Build.Linux"
    ],
    "optionalUnityReferences": [],
    "overrideReferences": true,
    "includePlatforms": [
        "Editor"
    ],
    "excludePlatforms": [],
    "allowUnsafeCode": false
}
