{
    "name": "Unity.Build.Linux.DotsRuntime",
    "references": [
        "Unity.Build",
        "Unity.Build.Internals",
        "Unity.Build.DotsRuntime",
        "Unity.Build.Desktop.DotsRuntime"
    ],
    "includePlatforms": [
        "Editor"
    ],
    "excludePlatforms": [],
    "allowUnsafeCode": true,
    "overrideReferences": false,
    "precompiledReferences": [],
    "autoReferenced": false,
    "defineConstraints": [],
    "versionDefines": []
}
